…
boot_sample = function(df) {
  sample_frac(tbl = df, size = .25, replace = TRUE)
}

boot_straps = 
  tibble(strap_number = 1:5000) |> 
  mutate(
    strap_sample = map(strap_number, \(i) boot_sample(df = weather_df))
  )

boot_straps
```

    ## # A tibble: 5,000 × 2
    ##    strap_number strap_sample     
    ##           <int> <list>           
    ##  1            1 <tibble [91 × 6]>
    ##  2            2 <tibble [91 × 6]>
    ##  3            3 <tibble [91 × 6]>
    ##  4            4 <tibble [91 × 6]>
    ##  5            5 <tibble [91 × 6]>
    ##  6            6 <tibble [91 × 6]>
    ##  7            7 <tibble [91 × 6]>
    ##  8            8 <tibble [91 × 6]>
    ##  9            9 <tibble [91 × 6]>
    ## 10           10 <tibble [91 × 6]>
    ## # ℹ 4,990 more rows
…
